<?xml version="1.0" encoding="UTF-8" standalone="no"?>
<!-- Created with Inkscape (http://www.inkscape.org/) -->
<svg
   xmlns:dc="http://purl.org/dc/elements/1.1/"
   xmlns:cc="http://creativecommons.org/ns#"
   xmlns:rdf="http://www.w3.org/1999/02/22-rdf-syntax-ns#"
   xmlns:svg="http://www.w3.org/2000/svg"
   xmlns="http://www.w3.org/2000/svg"
   xmlns:xlink="http://www.w3.org/1999/xlink"
   xmlns:sodipodi="http://sodipodi.sourceforge.net/DTD/sodipodi-0.dtd"
   xmlns:inkscape="http://www.inkscape.org/namespaces/inkscape"
   width="248.02858"
   height="239.45715"
   id="svg2"
   sodipodi:version="0.32"
   inkscape:version="0.46"
   sodipodi:docname="delete.svg"
   inkscape:output_extension="org.inkscape.output.svg.inkscape"
   version="1.0"
   inkscape:export-filename="/home/georgesk/developpement/copytracker/copytracker-0.6-dfsg/images/minus.png"
   inkscape:export-xdpi="5"
   inkscape:export-ydpi="5">
  <defs
     id="defs4">
    <inkscape:perspective
       sodipodi:type="inkscape:persp3d"
       inkscape:vp_x="0 : 526.18109 : 1"
       inkscape:vp_y="0 : 1000 : 0"
       inkscape:vp_z="744.09448 : 526.18109 : 1"
       inkscape:persp3d-origin="372.04724 : 350.78739 : 1"
       id="perspective10" />
    <radialGradient
       gradientUnits="userSpaceOnUse"
       gradientTransform="matrix(1.32021,2.474953e-2,-1.185079e-2,0.632154,-5.997728,0.713646)"
       r="17.499994"
       fy="23.809175"
       fx="19.527102"
       cy="20.789114"
       cx="19.499992"
       id="radialGradient4846"
       xlink:href="#linearGradient5735"
       inkscape:collect="always" />
    <linearGradient
       y2="38.625"
       x2="-31.945671"
       y1="38.625"
       x1="-95.53125"
       gradientTransform="matrix(-0.241845,0,0,0.229885,0.585142,18.12069)"
       gradientUnits="userSpaceOnUse"
       id="linearGradient5739"
       xlink:href="#linearGradient2201"
       inkscape:collect="always" />
    <linearGradient
       y2="39.660656"
       x2="-63"
       y1="-4.839344"
       x1="-87.5"
       gradientTransform="matrix(-0.252632,0,0,0.236954,-0.494738,18.10436)"
       gradientUnits="userSpaceOnUse"
       id="linearGradient5736"
       xlink:href="#linearGradient2183"
       inkscape:collect="always" />
    <linearGradient
       y2="38.625"
       x2="-31.945671"
       y1="38.625"
       x1="-95.53125"
       gradientTransform="matrix(0.230385,6.160648e-2,6.173139e-2,-0.229919,31.64672,46.89936)"
       gradientUnits="userSpaceOnUse"
       id="linearGradient5728"
       xlink:href="#linearGradient2201"
       inkscape:collect="always" />
    <linearGradient
       gradientTransform="matrix(0.193727,0,0,0.194412,30.15069,19.21305)"
       y2="91.51226"
       x2="-70.46225"
       y1="59.150021"
       x1="-70.46225"
       gradientUnits="userSpaceOnUse"
       id="linearGradient5716"
       xlink:href="#linearGradient4955"
       inkscape:collect="always" />
    <linearGradient
       id="linearGradient2201">
      <stop
         id="stop2203"
         offset="0"
         style="stop-color:#5bdd22;stop-opacity:1;" />
      <stop
         id="stop2205"
         offset="1"
         style="stop-color:#60d02f;stop-opacity:1;" />
    </linearGradient>
    <linearGradient
       id="linearGradient2183"
       inkscape:collect="always">
      <stop
         id="stop2185"
         offset="0"
         style="stop-color:#ffffff;stop-opacity:1;" />
      <stop
         id="stop2187"
         offset="1"
         style="stop-color:#ffffff;stop-opacity:0;" />
    </linearGradient>
    <linearGradient
       gradientTransform="matrix(0.349381,0,0,0.376136,0.724309,0.929123)"
       gradientUnits="userSpaceOnUse"
       y2="69.818649"
       x2="103.38376"
       y1="128"
       x1="65"
       id="linearGradient6972"
       xlink:href="#linearGradient6966"
       inkscape:collect="always" />
    <radialGradient
       gradientUnits="userSpaceOnUse"
       gradientTransform="matrix(1,0,0,0.353712,0,70.60699)"
       r="57.25"
       fy="149.6292"
       fx="66.25"
       cy="109.25"
       cx="66.25"
       id="radialGradient6962"
       xlink:href="#linearGradient6956"
       inkscape:collect="always" />
    <linearGradient
       gradientTransform="matrix(0.386462,0,0,0.386916,-5.195112,-1.570147)"
       gradientUnits="userSpaceOnUse"
       y2="70.75"
       x2="68.737175"
       y1="72.75"
       x1="101.25"
       id="linearGradient5767"
       xlink:href="#linearGradient5761"
       inkscape:collect="always" />
    <linearGradient
       gradientTransform="matrix(0.387812,0,0,0.386125,-5.28359,-1.294129)"
       gradientUnits="userSpaceOnUse"
       y2="72.32222"
       x2="63.90625"
       y1="74.57222"
       x1="18.78125"
       id="linearGradient5757"
       xlink:href="#linearGradient5751"
       inkscape:collect="always" />
    <linearGradient
       gradientTransform="matrix(0.471404,0,0,0.460047,-11.58333,-6.202082)"
       gradientUnits="userSpaceOnUse"
       y2="17.999977"
       x2="59.008205"
       y1="48.804073"
       x1="59.008205"
       id="linearGradient5733"
       xlink:href="#linearGradient5727"
       inkscape:collect="always" />
    <linearGradient
       gradientTransform="matrix(0.396121,0,0,0.39058,-5.812296,-1.694731)"
       gradientUnits="userSpaceOnUse"
       y2="30.337681"
       x2="55.154327"
       y1="64.572014"
       x1="55.154327"
       id="linearGradient5723"
       xlink:href="#linearGradient5717"
       inkscape:collect="always" />
    <linearGradient
       id="linearGradient5717"
       inkscape:collect="always">
      <stop
         id="stop5719"
         offset="0"
         style="stop-color:white;stop-opacity:1;" />
      <stop
         id="stop5721"
         offset="1"
         style="stop-color:white;stop-opacity:0;" />
    </linearGradient>
    <linearGradient
       id="linearGradient5727"
       inkscape:collect="always">
      <stop
         id="stop5729"
         offset="0"
         style="stop-color:white;stop-opacity:1;" />
      <stop
         id="stop5731"
         offset="1"
         style="stop-color:white;stop-opacity:0.32618025" />
    </linearGradient>
    <linearGradient
       id="linearGradient5735"
       inkscape:collect="always">
      <stop
         id="stop5737"
         offset="0"
         style="stop-color:black;stop-opacity:0.53218883" />
      <stop
         id="stop5739"
         offset="1"
         style="stop-color:black;stop-opacity:0;" />
    </linearGradient>
    <linearGradient
       id="linearGradient5751">
      <stop
         id="stop5753"
         offset="0"
         style="stop-color:white;stop-opacity:0;" />
      <stop
         style="stop-color:white;stop-opacity:1;"
         offset="0"
         id="stop5759" />
      <stop
         id="stop5755"
         offset="1"
         style="stop-color:white;stop-opacity:0;" />
    </linearGradient>
    <linearGradient
       id="linearGradient5761"
       inkscape:collect="always">
      <stop
         id="stop5763"
         offset="0"
         style="stop-color:#969696;stop-opacity:1" />
      <stop
         id="stop5765"
         offset="1"
         style="stop-color:#ddd;stop-opacity:1" />
    </linearGradient>
    <linearGradient
       id="linearGradient6956"
       inkscape:collect="always">
      <stop
         id="stop6958"
         offset="0"
         style="stop-color:black;stop-opacity:1;" />
      <stop
         id="stop6960"
         offset="1"
         style="stop-color:black;stop-opacity:0;" />
    </linearGradient>
    <linearGradient
       id="linearGradient6966"
       inkscape:collect="always">
      <stop
         id="stop6968"
         offset="0"
         style="stop-color:black;stop-opacity:0.21030043" />
      <stop
         id="stop6970"
         offset="1"
         style="stop-color:black;stop-opacity:0;" />
    </linearGradient>
    <linearGradient
       id="linearGradient4955"
       inkscape:collect="always">
      <stop
         id="stop4957"
         offset="0"
         style="stop-color:white;stop-opacity:1;" />
      <stop
         id="stop4959"
         offset="1"
         style="stop-color:white;stop-opacity:0;" />
    </linearGradient>
    <inkscape:perspective
       id="perspective2604"
       inkscape:persp3d-origin="24 : 16 : 1"
       inkscape:vp_z="48 : 24 : 1"
       inkscape:vp_y="0 : 1000 : 0"
       inkscape:vp_x="0 : 24 : 1"
       sodipodi:type="inkscape:persp3d" />
  </defs>
  <sodipodi:namedview
     id="base"
     pagecolor="#ffffff"
     bordercolor="#666666"
     borderopacity="1.0"
     inkscape:pageopacity="0.0"
     inkscape:pageshadow="2"
     inkscape:zoom="2.8"
     inkscape:cx="256.79252"
     inkscape:cy="149.49892"
     inkscape:document-units="px"
     inkscape:current-layer="layer1"
     showgrid="false"
     inkscape:window-width="1680"
     inkscape:window-height="973"
     inkscape:window-x="0"
     inkscape:window-y="27" />
  <metadata
     id="metadata7">
    <rdf:RDF>
      <cc:Work
         rdf:about="">
        <dc:format>image/svg+xml</dc:format>
        <dc:type
           rdf:resource="http://purl.org/dc/dcmitype/StillImage" />
      </cc:Work>
    </rdf:RDF>
  </metadata>
  <g
     inkscape:label="Calque 1"
     inkscape:groupmode="layer"
     id="layer1"
     transform="translate(-263.48571,-261.20504)">
    <rect
       style="opacity:1;fill:#ffe29e;fill-opacity:1;fill-rule:nonzero;stroke:#000000;stroke-width:16.60000038;stroke-linecap:square;stroke-linejoin:miter;stroke-miterlimit:4;stroke-dasharray:none;stroke-dashoffset:0;stroke-opacity:1"
       id="rect2383"
       width="231.42857"
       height="222.85715"
       x="271.78571"
       y="269.50504"
       ry="71.428574"
       inkscape:export-filename="/home/georgesk/developpement/copytracker/copytracker-0.6-dfsg/images/minus.png"
       inkscape:export-xdpi="5.0800595"
       inkscape:export-ydpi="5.0800595"
       rx="71.428574" />
    <path
       style="fill:#000000;fill-opacity:1;fill-rule:evenodd;stroke:#000000;stroke-width:4.59999990000000025;stroke-linecap:butt;stroke-linejoin:miter;stroke-miterlimit:4;stroke-dasharray:none;stroke-opacity:1"
       d="M 126.78571,103.02858 C 146.07143,43.385725 190,34.814296 190,34.814296 L 190.71429,11.242868 L 230.71429,46.242867 L 191.78572,85.528581 L 191.78572,61.242867 C 191.78572,61.242867 163.57143,59.10001 126.78571,103.02858 z"
       id="path2661"
       transform="translate(171.7,289.77648)"
       sodipodi:nodetypes="ccccccc" />
    <path
       style="fill:#000000;fill-opacity:1;fill-rule:evenodd;stroke:#000000;stroke-width:4.59999990000000025;stroke-linecap:butt;stroke-linejoin:miter;stroke-miterlimit:4;stroke-dasharray:none;stroke-opacity:1"
       d="M 465.80714,377.98364 C 446.52142,437.6265 402.59285,446.19793 402.59285,446.19793 L 401.87856,469.76935 L 361.87856,434.76936 L 400.80713,395.48364 L 400.80713,419.76936 C 400.80713,419.76936 429.02142,421.91221 465.80714,377.98364 z"
       id="path3449"
       sodipodi:nodetypes="ccccccc" />
  </g>
</svg>
